…
t_o_counts

## # A tibble: 1,537 x 6
##    word2              obama    trump total log_ratio abs_ratio
##    <chr>              <dbl>    <dbl> <dbl>     <dbl>     <dbl>
##  1 special          0.00451 0.000219   14.      4.37      4.37
##  2 strategy         0.00361 0.000219   11.      4.05      4.05
##  3 administration's 0.0120  0.000875   42.      3.78      3.78
##  4 arrives          0.00301 0.000219    9.      3.78      3.78
##  5 speech           0.00782 0.000656   27.      3.58      3.58
##  6 message          0.00241 0.000219    7.      3.46      3.46
##  7 yesterday        0.00451 0.000437   15.      3.37      3.37
##  8 decision         0.00632 0.000656   22.      3.27      3.27
##  9 envoy            0.00211 0.000219    6.      3.27      3.27
## 10 announcement     0.00180 0.000219    5.      3.05      3.05
## # ... with 1,527 more rows
…
